[ {"_id":"3476271926",
  "given": "Anvesh",
  "family": "Koriti",
  "date_created":"15-06-2018",
  "phone_no":"6354781209",
  "email": "anveshkoriti@gmail.com",
  "city": "Hyderabad",
  "state": "Telangana",
  "zip": 500075,
  "country": "INDIA"
},
{"_id":"3476271927",
  "given": "Rahul",
  "family": "Dayam",
  "date_created":"20-12-2017",
  "phone_no":"6354781689",
  "email": "S533901@nwmissouri.edu",
  "city": "Hyderabad",
  "state": "Telangana",
  "zip": 500035,
  "country": "INDIA"
},
  {"_id":"3476271928",
    "given": "Denise",
    "family": "Case",
    "date_created":"20-12-2017",
    "phone_no":"6389754689",
    "email": "dcase@nwmissouri.edu",
    "street1": "800 University Drive",
    "street2": "",
    "city": "Maryville",
    "state": "MO",
    "zip": 64468,
    "country": "USA"
  },
  { "_id":"3476271929",
    "given": "Lohitha",
    "family": "Bhethalam",
    "date_created":"20-12-2017",
    "phone_no":"6389876589",
    "email": "s533975@nwmissouri.edu",
    "city": "Hyderabad",
    "state": "Telangana",
    "zip": 500070,
    "country": "INDIA"
  }
 
]