[
    {
      "_id": 1,
      "email": "missouri_org@gmail.com",
      "organizationName": "Missouri",
      "street1": "1115N College Drive",
      "street2": "sdjl",
      "city": "Maryville",
      "state": "MO",
      "zip": 64468,
      "country": "USA"
    },
    {
      "_id": 2,
      "email": "kansas_org@gmail.com",
      "organizationName": "Kansas",
      "street1": "500 university Drive",
      "street2": "sdjl",
      "city": "kansas city",
      "state": "Kansas",
      "zip": 64468,
      "country": "USA"
    },
    {
      "_id": 3,
      "email": "dallas_org@gmail.com",
      "organizationName": "Dallas",
      "street1": "15 ",
      "street2": "sdjl",
      "city": "Dallas city",
      "state": "Dallas",
      "zip": 75001,
      "country": "USA"
    },
    {
      "_id": 4,
      "email": "austin_org@gmail.com",
      "organizationName": "Austin",
      "street1": "111 south",
      "street2": "sdjl",
      "city": "Austin",
      "state": "Texas",
      "zip": 73301,
      "country": "USA"
    }
  ]